The Assignment in R
…
library(DBI)
library(RSQLite)
library(sf)

## Linking to GEOS 3.6.2, GDAL 2.2.4, proj.4 5.0.1

1 Reading in the data

First we need to read in the Excel sheet, which is inside a Data folder within my RStudio project. We take a direct look at the raw data for a first sanity check of the data.

data_raw <- read_excel("../Data/tidal_sample.xlsx")

data_raw

## # A tibble: 250 x 8
##    Date       Time  Substrattype `GPS Latitude` `GPS Longitude` depth
##    <chr>      <chr> <chr>        <chr>          <chr>           <chr>
##  1 03.04.2017 14:06 Grus-Stein   63,0902        7,26505         31,3 
##  2 03.04.2017 14:23 Sand         63,10097       7,29703         36,9 
##  3 11.04.2017 15:25 Grus         62,50683       5,9377          31,6 
##  4 11.04.2017 15:37 Skjellsand   62,51823       5,93911         25,3 
##  5 11.04.2017 15:55 Skjellsand   62,52615       5,922           32,7 
##  6 12.04.2017 12:05 Stein        62,56414       5,88093         43,3 
##  7 23.06.2017 13:14 Stein        62,35022       5,42584         37,4 
##  8 06.04.2017 16:00 Sand-Stein   63,47915       8,1177          31,3 
##  9 06.04.2017 15:43 Fjell        63,48384       8,12161         33,1 
## 10 06.04.2017 16:17 Fjell-Stein  63,48167       8,07677         32,8 
## # ... with 240 more rows, and 2 more variables: `Kommentar til observasjon
## #   (evt fremmede arter)` <chr>, `Ansltt stortaresubstrat (%)` <chr>
…
## Warning in evalq(as.double(GPS_Latitude), <environment>): NAs introduced by
## coercion

## Warning in evalq(as.double(GPS_Longitude), <environment>): NAs introduced
## by coercion

## Warning in evalq(as.double(Depth), <environment>): NAs introduced by
## coercion

## Warning in evalq(as.double(Kelp_Percentage), <environment>): NAs introduced
## by coercion

data

## # A tibble: 250 x 8
##    Date       Time  Substrate_Type GPS_Latitude GPS_Longitude Depth
##    <date>     <chr> <chr>                 <dbl>         <dbl> <dbl>
##  1 2017-04-03 14:06 Grus-Stein             63.1          7.27  31.3
##  2 2017-04-03 14:23 Sand                   63.1          7.30  36.9
##  3 2017-04-11 15:25 Grus                   62.5          5.94  31.6
##  4 2017-04-11 15:37 Skjellsand             62.5          5.94  25.3
##  5 2017-04-11 15:55 Skjellsand             62.5          5.92  32.7
##  6 2017-04-12 12:05 Stein                  62.6          5.88  43.3
##  7 2017-06-23 13:14 Stein                  62.4          5.43  37.4
##  8 2017-04-06 16:00 Sand-Stein             63.5          8.12  31.3
##  9 2017-04-06 15:43 Fjell                  63.5          8.12  33.1
## 10 2017-04-06 16:17 Fjell-Stein            63.5          8.08  32.8
## # ... with 240 more rows, and 2 more variables: Comment <chr>,
## #   Kelp_Percentage <dbl>
…
data %>% 
  select(GPS_Longitude) %>% 
  arrange(desc(GPS_Longitude))

## # A tibble: 250 x 1
##    GPS_Longitude
##            <dbl>
##  1         63.1 
##  2          8.25
##  3          8.24
##  4          8.23
##  5          8.22
##  6          8.22
##  7          8.22
##  8          8.22
##  9          8.21
## 10          8.21
## # ... with 240 more rows

data %>% 
  select(GPS_Latitude) %>% 
  arrange(GPS_Latitude)

## # A tibble: 250 x 1
##    GPS_Latitude
##           <dbl>
##  1         7.23
##  2        62.0 
##  3        62.0 
##  4        62.0 
##  5        62.1 
##  6        62.1 
##  7        62.1 
##  8        62.1 
##  9        62.1 
## 10        62.1 
## # ... with 240 more rows
…
## Warning in evalq(as.double(GPS_Latitude), <environment>): NAs introduced by
## coercion

## Warning in evalq(as.double(GPS_Longitude), <environment>): NAs introduced
## by coercion

## Warning in evalq(as.double(Depth), <environment>): NAs introduced by
## coercion

## Warning in evalq(as.double(Kelp_Percentage), <environment>): NAs introduced
## by coercion

data

## # A tibble: 250 x 8
##    Date                Time  Substrate_Type GPS_Latitude GPS_Longitude
##    <dttm>              <chr> <chr>                 <dbl>         <dbl>
##  1 2017-04-03 00:00:00 14:06 Grus-Stein             63.1          7.27
##  2 2017-04-03 00:00:00 14:23 Sand                   63.1          7.30
##  3 2017-04-11 00:00:00 15:25 Grus                   62.5          5.94
##  4 2017-04-11 00:00:00 15:37 Skjellsand             62.5          5.94
##  5 2017-04-11 00:00:00 15:55 Skjellsand             62.5          5.92
##  6 2017-04-12 00:00:00 12:05 Stein                  62.6          5.88
##  7 2017-06-23 00:00:00 13:14 Stein                  62.4          5.43
##  8 2017-04-06 00:00:00 16:00 Sand-Stein             63.5          8.12
##  9 2017-04-06 00:00:00 15:43 Fjell                  63.5          8.12
## 10 2017-04-06 00:00:00 16:17 Fjell-Stein            63.5          8.08
## # ... with 240 more rows, and 3 more variables: Depth <dbl>,
## #   Comment <chr>, Kelp_Percentage <dbl>
…
It looks like the issues have been fixed and we can proceed further. The final step in tidying up is to bring all the necessary columns into an adequate form for using it with the API in the next step. This includes the re-transformation of Date into a character, as well as dropping the observation (drop_na()) with either missing data in Date, Time, GPS_Longitude, GPS_Latitude, or Depth.

data_tidy <- data %>%
  drop_na(Date, Time, GPS_Latitude, GPS_Longitude, Depth) %>%
  mutate(Date = as.character(Date))

data_tidy

## # A tibble: 249 x 8
##    Date   Time  Substrate_Type GPS_Latitude GPS_Longitude Depth Comment   
##    <chr>  <chr> <chr>                 <dbl>         <dbl> <dbl> <chr>     
##  1 2017- 14:06 Grus-Stein             63.1          7.27  31.3 Vegetasjo
##  2 2017- 14:23 Sand                   63.1          7.30  36.9 Vegetasjo
##  3 2017- 15:25 Grus                   62.5          5.94  31.6 Grusbunn 
##  4 2017- 15:37 Skjellsand             62.5          5.94  25.3 Vegetasjo
##  5 2017- 15:55 Skjellsand             62.5          5.92  32.7 Vegetasjo
##  6 2017- 12:05 Stein                  62.6          5.88  43.3 Steinbunn
##  7 2017- 13:14 Stein                  62.4          5.43  37.4 Steinbunn
##  8 2017- 16:00 Sand-Stein             63.5          8.12  31.3 Sandbunn 
##  9 2017- 15:43 Fjell                  63.5          8.12  33.1 Vegetasjo
## 10 2017- 16:17 Fjell-Stein            63.5          8.08  32.8 Vegetasjo
## # ... with 239 more rows, and 1 more variable: Kelp_Percentage <dbl>
…
data_API

## # A tibble: 249 x 20
##    Date   Time  Substrate_Type GPS_Latitude GPS_Longitude Depth Comment   
##    <chr>  <chr> <chr>                 <dbl>         <dbl> <dbl> <chr>     
##  1 2017- 14:06 Grus-Stein             63.1          7.27  31.3 Vegetasjo
##  2 2017- 14:23 Sand                   63.1          7.30  36.9 Vegetasjo
##  3 2017- 15:25 Grus                   62.5          5.94  31.6 Grusbunn 
##  4 2017- 15:37 Skjellsand             62.5          5.94  25.3 Vegetasjo
##  5 2017- 15:55 Skjellsand             62.5          5.92  32.7 Vegetasjo
##  6 2017- 12:05 Stein                  62.6          5.88  43.3 Steinbunn
##  7 2017- 13:14 Stein                  62.4          5.43  37.4 Steinbunn
##  8 2017- 16:00 Sand-Stein             63.5          8.12  31.3 Sandbunn 
##  9 2017- 15:43 Fjell                  63.5          8.12  33.1 Vegetasjo
## 10 2017- 16:17 Fjell-Stein            63.5          8.08  32.8 Vegetasjo
## # ... with 239 more rows, and 13 more variables: Kelp_Percentage <dbl>,
## #   API <chr>, lat <dbl>, lon <dbl>, datatype <chr>, file <chr>,
## #   lang <chr>, dst <dbl>, refcode <chr>, fromtime <chr>, totime <chr>,
## #   interval <dbl>, URL <chr>

This looks good (at least there were no errors). No its time to call the API, using GET().

data_API <- data_API %>% 
  mutate(API_GET = map(URL, ~ GET(.)))

data_API

## # A tibble: 249 x 21
##    Date   Time  Substrate_Type GPS_Latitude GPS_Longitude Depth Comment   
##    <chr>  <chr> <chr>                 <dbl>         <dbl> <dbl> <chr>     
##  1 2017- 14:06 Grus-Stein             63.1          7.27  31.3 Vegetasjo
##  2 2017- 14:23 Sand                   63.1          7.30  36.9 Vegetasjo
##  3 2017- 15:25 Grus                   62.5          5.94  31.6 Grusbunn 
##  4 2017- 15:37 Skjellsand             62.5          5.94  25.3 Vegetasjo
##  5 2017- 15:55 Skjellsand             62.5          5.92  32.7 Vegetasjo
##  6 2017- 12:05 Stein                  62.6          5.88  43.3 Steinbunn
##  7 2017- 13:14 Stein                  62.4          5.43  37.4 Steinbunn
##  8 2017- 16:00 Sand-Stein             63.5          8.12  31.3 Sandbunn 
##  9 2017- 15:43 Fjell                  63.5          8.12  33.1 Vegetasjo
## 10 2017- 16:17 Fjell-Stein            63.5          8.08  32.8 Vegetasjo
## # ... with 239 more rows, and 14 more variables: Kelp_Percentage <dbl>,
## #   API <chr>, lat <dbl>, lon <dbl>, datatype <chr>, file <chr>,
## #   lang <chr>, dst <dbl>, refcode <chr>, fromtime <chr>, totime <chr>,
## #   interval <dbl>, URL <chr>, API_GET <list>
…
Lets try it out using map().

data_API <- data_API %>%
  mutate(API_Data = map(API_GET, ~ read_the_API_data(.)))

data_API

## # A tibble: 249 x 22
##    Date   Time  Substrate_Type GPS_Latitude GPS_Longitude Depth Comment   
##    <chr>  <chr> <chr>                 <dbl>         <dbl> <dbl> <chr>     
##  1 2017- 14:06 Grus-Stein             63.1          7.27  31.3 Vegetasjo
##  2 2017- 14:23 Sand                   63.1          7.30  36.9 Vegetasjo
##  3 2017- 15:25 Grus                   62.5          5.94  31.6 Grusbunn 
##  4 2017- 15:37 Skjellsand             62.5          5.94  25.3 Vegetasjo
##  5 2017- 15:55 Skjellsand             62.5          5.92  32.7 Vegetasjo
##  6 2017- 12:05 Stein                  62.6          5.88  43.3 Steinbunn
##  7 2017- 13:14 Stein                  62.4          5.43  37.4 Steinbunn
##  8 2017- 16:00 Sand-Stein             63.5          8.12  31.3 Sandbunn 
##  9 2017- 15:43 Fjell                  63.5          8.12  33.1 Vegetasjo
## 10 2017- 16:17 Fjell-Stein            63.5          8.08  32.8 Vegetasjo
## # ... with 239 more rows, and 15 more variables: Kelp_Percentage <dbl>,
## #   API <chr>, lat <dbl>, lon <dbl>, datatype <chr>, file <chr>,
## #   lang <chr>, dst <dbl>, refcode <chr>, fromtime <chr>, totime <chr>,
## #   interval <dbl>, URL <chr>, API_GET <list>, API_Data <list>

No errors, no warning, were happy for the time being. We now have a temporal data set for the water level of the day for each observation. To get a approximately correct value with which to correct the measured depth, we have to create a function based on the data retrieved from the API. For tidal data like this (going up and down over time), it makes sense to use a simple generalized additive model (GAM), which can handle this sort of pattern. Since we use this GAM for predictions only, and not (!) to draw statistical conclusions, we can accept a certain amout of overfitting to get a good predicted value for the water level at the time of measurement. But first, we need to specify a convenience function to create a GAM for each observational element.

GAM_from_API_Data <- function(df) {
  gam(formula = Tide ~ s(Time, k = 24), data = df)
}

Lets put it in action and see what we get. Note that we wrap the function into possibly() to not break the entire calculation in case of missing values for some of the observations.

data_API <- data_API %>%
  mutate(API_GAM = map(API_Data, possibly(~ GAM_from_API_Data(.), otherwise = NA))) 
data_API

## # A tibble: 249 x 23
##    Date   Time  Substrate_Type GPS_Latitude GPS_Longitude Depth Comment   
##    <chr>  <chr> <chr>                 <dbl>         <dbl> <dbl> <chr>     
##  1 2017- 14:06 Grus-Stein             63.1          7.27  31.3 Vegetasjo
##  2 2017- 14:23 Sand                   63.1          7.30  36.9 Vegetasjo
##  3 2017- 15:25 Grus                   62.5          5.94  31.6 Grusbunn 
##  4 2017- 15:37 Skjellsand             62.5          5.94  25.3 Vegetasjo
##  5 2017- 15:55 Skjellsand             62.5          5.92  32.7 Vegetasjo
##  6 2017- 12:05 Stein                  62.6          5.88  43.3 Steinbunn
##  7 2017- 13:14 Stein                  62.4          5.43  37.4 Steinbunn
##  8 2017- 16:00 Sand-Stein             63.5          8.12  31.3 Sandbunn 
##  9 2017- 15:43 Fjell                  63.5          8.12  33.1 Vegetasjo
## 10 2017- 16:17 Fjell-Stein            63.5          8.08  32.8 Vegetasjo
## # ... with 239 more rows, and 16 more variables: Kelp_Percentage <dbl>,
## #   API <chr>, lat <dbl>, lon <dbl>, datatype <chr>, file <chr>,
## #   lang <chr>, dst <dbl>, refcode <chr>, fromtime <chr>, totime <chr>,
## #   interval <dbl>, URL <chr>, API_GET <list>, API_Data <list>,
## #   API_GAM <list>

No complaints, and it seems like for every observation reasonable data could be retrieved (no errors, warnings). We now have individual water level GAMs for each observation. Lets use these models to predict the water level at the time of measuring the water depth. Again we use possibly() as a safety measure

data_API <- data_API %>% 
  mutate(Water_Level = map2_dbl(API_GAM, (as.double(hm(Time)) / 60) / 60, 
                                possibly(~ predict(.x, newdata = tibble(Time = .y)) / 100, 
                                       otherwise = NA)), 
         Corrected_Depth = Depth - Water_Level)

data_API

## # A tibble: 249 x 25
##    Date   Time  Substrate_Type GPS_Latitude GPS_Longitude Depth Comment   
##    <chr>  <chr> <chr>                 <dbl>         <dbl> <dbl> <chr>     
##  1 2017- 14:06 Grus-Stein             63.1          7.27  31.3 Vegetasjo
##  2 2017- 14:23 Sand                   63.1          7.30  36.9 Vegetasjo
##  3 2017- 15:25 Grus                   62.5          5.94  31.6 Grusbunn 
##  4 2017- 15:37 Skjellsand             62.5          5.94  25.3 Vegetasjo
##  5 2017- 15:55 Skjellsand             62.5          5.92  32.7 Vegetasjo
##  6 2017- 12:05 Stein                  62.6          5.88  43.3 Steinbunn
##  7 2017- 13:14 Stein                  62.4          5.43  37.4 Steinbunn
##  8 2017- 16:00 Sand-Stein             63.5          8.12  31.3 Sandbunn 
##  9 2017- 15:43 Fjell                  63.5          8.12  33.1 Vegetasjo
## 10 2017- 16:17 Fjell-Stein            63.5          8.08  32.8 Vegetasjo
## # ... with 239 more rows, and 18 more variables: Kelp_Percentage <dbl>,
## #   API <chr>, lat <dbl>, lon <dbl>, datatype <chr>, file <chr>,
## #   lang <chr>, dst <dbl>, refcode <chr>, fromtime <chr>, totime <chr>,
## #   interval <dbl>, URL <chr>, API_GET <list>, API_Data <list>,
## #   API_GAM <list>, Water_Level <dbl>, Corrected_Depth <dbl>

Looks like we have everything we wanted! Now lets clean up the data (remove some of the now unnecessary columns) and make it ready to store in an SQLite database. We also now change the Date column back to a proper date column.

data_final <- data_API %>% 
  select(-API, -lat, -lon, -datatype, -file, -lang, -dst, -refcode, -fromtime, 
         -totime, -interval, -URL, -API_GET, -API_Data, -API_GAM) %>% 
  mutate(Date = ymd(Date))

data_final

## # A tibble: 249 x 10
##    Date       Time  Substrate_Type GPS_Latitude GPS_Longitude Depth
##    <date>     <chr> <chr>                 <dbl>         <dbl> <dbl>
##  1 2017-04-03 14:06 Grus-Stein             63.1          7.27  31.3
##  2 2017-04-03 14:23 Sand                   63.1          7.30  36.9
##  3 2017-04-11 15:25 Grus                   62.5          5.94  31.6
##  4 2017-04-11 15:37 Skjellsand             62.5          5.94  25.3
##  5 2017-04-11 15:55 Skjellsand             62.5          5.92  32.7
##  6 2017-04-12 12:05 Stein                  62.6          5.88  43.3
##  7 2017-06-23 13:14 Stein                  62.4          5.43  37.4
##  8 2017-04-06 16:00 Sand-Stein             63.5          8.12  31.3
##  9 2017-04-06 15:43 Fjell                  63.5          8.12  33.1
## 10 2017-04-06 16:17 Fjell-Stein            63.5          8.08  32.8
## # ... with 239 more rows, and 4 more variables: Comment <chr>,
## #   Kelp_Percentage <dbl>, Water_Level <dbl>, Corrected_Depth <dbl>
…
For visualization, we have to transform the data set into a simple feature (sf) object. These objects are able to process more complex geometric projections. Here, well use the Lambert azimuthal equal-area projection (LAEA) for correct display of the area.

data_final.sf <- data_final %>% 
  st_as_sf(coords = c("GPS_Longitude", "GPS_Latitude"), remove = FALSE, crs = "+proj=longlat +datum=WGS84 +no_defs") %>% 
  st_transform("+proj=laea")

data_final.sf

## Simple feature collection with 249 features and 10 fields
## geometry type:  POINT
## dimension:      XY
## bbox:           xmin: 318738.1 ymin: 6553545 xmax: 484139.6 ymax: 6698205
## epsg (SRID):    NA
## proj4string:    +proj=laea +lat_0=0 +lon_0=0 +x_0=0 +y_0=0 +ellps=WGS84 +units=m +no_defs
## # A tibble: 249 x 11
##    Date       Time  Substrate_Type GPS_Latitude GPS_Longitude Depth
##    <date>     <chr> <chr>                 <dbl>         <dbl> <dbl>
##  1 2017-04-03 14:06 Grus-Stein             63.1          7.27  31.3
##  2 2017-04-03 14:23 Sand                   63.1          7.30  36.9
##  3 2017-04-11 15:25 Grus                   62.5          5.94  31.6
##  4 2017-04-11 15:37 Skjellsand             62.5          5.94  25.3
##  5 2017-04-11 15:55 Skjellsand             62.5          5.92  32.7
##  6 2017-04-12 12:05 Stein                  62.6          5.88  43.3
##  7 2017-06-23 13:14 Stein                  62.4          5.43  37.4
##  8 2017-04-06 16:00 Sand-Stein             63.5          8.12  31.3
##  9 2017-04-06 15:43 Fjell                  63.5          8.12  33.1
## 10 2017-04-06 16:17 Fjell-Stein            63.5          8.08  32.8
## # ... with 239 more rows, and 5 more variables: Comment <chr>,
## #   Kelp_Percentage <dbl>, Water_Level <dbl>, Corrected_Depth <dbl>,
## #   geometry <POINT [m]>
…
